Tutorials/BSV_Training/Example_Programs/Eg05b_CRegs_Greater_Concurrency/dump_Reg.vcd
$date
	Mon Sep  1 21:39:12 2014
$end
$version
	Bluespec VCD dumper 2.1
$end
$timescale
	1 us
$end
$scope module main $end
$scope module top $end
$var reg 1 ! CLK $end
$var reg 1 ! CLK $end
$var reg 1 " CAN_FIRE_RL_rl_drain $end
$var reg 1 # CAN_FIRE_RL_rl_gen $end
$var reg 1 $ RST_N $end
$var reg 1 % WILL_FIRE_RL_rl_drain $end
$var reg 1 & WILL_FIRE_RL_rl_gen $end
$var reg 32 ' v__h244 $end
$var reg 32 ( v__h319 $end
$var reg 4 ) x__h204 $end
$var reg 4 + rg_y $end
$scope module shifter $end
$var reg 1 ! CLK $end
$var reg 1 , CAN_FIRE_RL_rl_0 $end
$var reg 1 - CAN_FIRE_RL_rl_1 $end
$var reg 1 . CAN_FIRE_RL_rl_2 $end
$var reg 1 / CAN_FIRE_request_put $end
$var reg 1 0 CAN_FIRE_response_get $end
$var reg 1 1 RST_N $end
$var reg 1 2 WILL_FIRE_RL_rl_0 $end
$var reg 1 3 WILL_FIRE_RL_rl_1 $end
$var reg 1 4 WILL_FIRE_RL_rl_2 $end
$var reg 1 5 WILL_FIRE_request_put $end
$var reg 1 6 WILL_FIRE_response_get $end
$var reg 1 7 fifo_in_xy_rg_count___d3 $end
$var reg 1 8 fifo_out_z_rg_count___d24 $end
$var reg 1 9 EN_request_put $end
$var reg 1 : EN_response_get $end
$var reg 1 ; RDY_request_put $end
$var reg 1 < RDY_response_get $end
$var reg 11 = request_put $end
$var reg 8 > response_get $end
$var reg 11 G fifo_in_xy_rg $end
$var reg 1 H fifo_in_xy_rg_count $end
$var reg 8 I fifo_out_z_rg $end
$var reg 1 J fifo_out_z_rg_count $end
$var reg 11 K fifo_xy1_rg $end
$var reg 1 L fifo_xy1_rg_count $end
$var reg 11 M fifo_xy2_rg $end
$var reg 1 N fifo_xy2_rg_count $end
$upscope $end
$upscope $end
$upscope $end
$enddefinitions $end
1!
0"
0#
0$
0%
0&
b10101010101010101010101010101010 '
b10101010101010101010101010101010 (
b1010 )
b0 +
0,
0-
0.
1/
00
01
02
03
04
05
06
07
08
09
0:
1;
0<
b0 =
b0 >
b1010101010 G
0H
b10101010 I
0J
b1010101010 K
0L
b1010101010 M
0N
1#
1&
b1010 '
b0 )
15
19
b1000 =
#5
0!
1$
11
#10
0#
0&
b1 )
1,
0/
12
05
17
09
0;
1!
b1 +
b1000 G
1H
#15
0!
#20
1#
1&
b11110 '
0,
1-
1/
02
13
15
07
19
1;
b1001 =
1!
0H
b1000 K
1L
#25
0!
#30
0#
0&
b10 )
1,
0-
1.
0/
12
03
14
05
17
09
0;
1!
b10 +
b1001 G
1H
0L
b1000 M
1N
#35
0!
#40
1"
1#
1%
1&
b110010 '
b110010 (
0,
1-
0.
1/
10
02
13
04
15
16
07
18
19
1:
1;
1<
b1010 =
b1 >
1!
0H
b1 I
1J
b10001 K
1L
0N
#45
0!
#50
0"
0#
0%
0&
b11 )
1,
0-
1.
0/
00
12
03
14
05
06
17
08
09
0:
0;
0<
1!
b11 +
b1010 G
1H
0J
0L
b10001 M
1N
#55
0!
#60
1"
1#
1%
1&
b1000110 '
b1000110 (
0,
1-
0.
1/
10
02
13
04
15
16
07
18
19
1:
1;
1<
b1011 =
b10 >
1!
0H
b10 I
1J
b1010 K
1L
0N
#65
0!
#70
0"
0#
0%
0&
b100 )
1,
0-
1.
0/
00
12
03
14
05
06
17
08
09
0:
0;
0<
1!
b100 +
b1011 G
1H
0J
0L
b100010 M
1N
#75
0!
#80
1"
1#
1%
1&
b1011010 '
b1011010 (
0,
1-
0.
1/
10
02
13
04
15
16
07
18
19
1:
1;
1<
b1100 =
b100 >
1!
0H
b100 I
1J
b10011 K
1L
0N
#85
0!
#90
0"
0#
0%
0&
b101 )
1,
0-
1.
0/
00
12
03
14
05
06
17
08
09
0:
0;
0<
1!
b101 +
b1100 G
1H
0J
0L
b1000011 M
1N
#95
0!
#100
1"
1#
1%
1&
b1101110 '
b1101110 (
0,
1-
0.
1/
10
02
13
04
15
16
07
18
19
1:
1;
1<
b1101 =
b1000 >
1!
0H
b1000 I
1J
b1100 K
1L
0N
#105
0!
#110
0"
0#
0%
0&
b110 )
1,
0-
1.
0/
00
12
03
14
05
06
17
08
09
0:
0;
0<
1!
b110 +
b1101 G
1H
0J
0L
b1100 M
1N
#115
0!
#120
1"
1#
1%
1&
b10000010 '
b10000010 (
0,
1-
0.
1/
10
02
13
04
15
16
07
18
19
1:
1;
1<
b1110 =
b10000 >
1!
0H
b10000 I
1J
b10101 K
1L
0N
#125
0!
#130
0"
0#
0%
0&
b111 )
1,
0-
1.
0/
00
12
03
14
05
06
17
08
09
0:
0;
0<
1!
b111 +
b1110 G
1H
0J
0L
b10101 M
1N
#135
0!
#140
1"
1#
1%
1&
b10010110 '
b10010110 (
0,
1-
0.
1/
10
02
13
04
15
16
07
18
19
1:
1;
1<
b1111 =
b100000 >
1!
0H
b100000 I
1J
b1110 K
1L
0N
#145
0!
#150
0"
0#
0%
0&
b1000 )
1,
0-
1.
0/
00
12
03
14
05
06
17
08
09
0:
0;
0<
1!
b1000 +
b1111 G
1H
0J
0L
b100110 M
1N
#155
0!
#160
1"
1%
b10101010 (
0,
1-
0.
1/
10
02
13
04
16
07
18
1:
1;
1<
b1000000 >
1!
0H
b1000000 I
1J
b10111 K
1L
0N
#165
0!
#170
0"
0%
0-
1.
00
03
14
06
08
0:
0<
1!
0J
0L
b1000111 M
1N
#175
0!
#180
1"
1%
b10111110 (
0.
10
04
16
18
1:
1<
b10000000 >
1!
b10000000 I
1J
0N
