Tutorials/BSV_Training/Example_Programs/Eg05b_CRegs_Greater_Concurrency/dump_CReg.vcd
$date
	Mon Sep  1 21:29:35 2014
$end
$version
	Bluespec VCD dumper 2.1
$end
$timescale
	1 us
$end
$scope module main $end
$scope module top $end
$var reg 1 ! CLK $end
$var reg 1 ! CLK $end
$var reg 1 " CAN_FIRE_RL_rl_drain $end
$var reg 1 # CAN_FIRE_RL_rl_gen $end
$var reg 1 $ RST_N $end
$var reg 1 % WILL_FIRE_RL_rl_drain $end
$var reg 1 & WILL_FIRE_RL_rl_gen $end
$var reg 32 ' v__h244 $end
$var reg 32 ( v__h319 $end
$var reg 4 ) x__h204 $end
$var reg 4 + rg_y $end
$scope module shifter $end
$var reg 1 ! CLK $end
$var reg 1 , CAN_FIRE_RL_rl_0 $end
$var reg 1 - CAN_FIRE_RL_rl_1 $end
$var reg 1 . CAN_FIRE_RL_rl_2 $end
$var reg 1 / CAN_FIRE_request_put $end
$var reg 1 0 CAN_FIRE_response_get $end
$var reg 1 1 RST_N $end
$var reg 1 2 WILL_FIRE_RL_rl_0 $end
$var reg 1 3 WILL_FIRE_RL_rl_1 $end
$var reg 1 4 WILL_FIRE_RL_rl_2 $end
$var reg 1 5 WILL_FIRE_request_put $end
$var reg 1 6 WILL_FIRE_response_get $end
$var reg 1 7 EN_request_put $end
$var reg 1 8 EN_response_get $end
$var reg 1 9 RDY_request_put $end
$var reg 1 : RDY_response_get $end
$var reg 11 ; request_put $end
$var reg 8 < response_get $end
$var reg 11 E fifo_in_xy_crg $end
$scope module fifo_in_xy_crg $end
$var reg 11 E Q_OUT_0 $end
$var reg 1 F EN_0 $end
$var reg 11 G D_IN_0 $end
$var reg 11 H Q_OUT_1 $end
$var reg 1 I EN_1 $end
$var reg 11 J D_IN_1 $end
$var reg 11 K Q_OUT_2 $end
$var reg 1 L EN_2 $end
$var reg 11 M D_IN_2 $end
$var reg 11 N Q_OUT_3 $end
$var reg 1 O EN_3 $end
$var reg 11 P D_IN_3 $end
$var reg 11 Q Q_OUT_4 $end
$var reg 1 R EN_4 $end
$var reg 11 S D_IN_4 $end
$upscope $end
$var reg 1 T fifo_in_xy_crg_count $end
$scope module fifo_in_xy_crg_count $end
$var reg 1 T Q_OUT_0 $end
$var reg 1 U EN_0 $end
$var reg 1 V D_IN_0 $end
$var reg 1 W Q_OUT_1 $end
$var reg 1 X EN_1 $end
$var reg 1 Y D_IN_1 $end
$var reg 1 Z Q_OUT_2 $end
$var reg 1 [ EN_2 $end
$var reg 1 \ D_IN_2 $end
$var reg 1 ] Q_OUT_3 $end
$var reg 1 ^ EN_3 $end
$var reg 1 _ D_IN_3 $end
$var reg 1 ` Q_OUT_4 $end
$var reg 1 a EN_4 $end
$var reg 1 b D_IN_4 $end
$upscope $end
$var reg 8 c fifo_out_z_crg $end
$scope module fifo_out_z_crg $end
$var reg 8 c Q_OUT_0 $end
$var reg 1 d EN_0 $end
$var reg 8 e D_IN_0 $end
$var reg 8 f Q_OUT_1 $end
$var reg 1 g EN_1 $end
$var reg 8 h D_IN_1 $end
$var reg 8 i Q_OUT_2 $end
$var reg 1 j EN_2 $end
$var reg 8 k D_IN_2 $end
$var reg 8 l Q_OUT_3 $end
$var reg 1 m EN_3 $end
$var reg 8 n D_IN_3 $end
$var reg 8 o Q_OUT_4 $end
$var reg 1 p EN_4 $end
$var reg 8 q D_IN_4 $end
$upscope $end
$var reg 1 r fifo_out_z_crg_count $end
$scope module fifo_out_z_crg_count $end
$var reg 1 r Q_OUT_0 $end
$var reg 1 s EN_0 $end
$var reg 1 t D_IN_0 $end
$var reg 1 u Q_OUT_1 $end
$var reg 1 v EN_1 $end
$var reg 1 w D_IN_1 $end
$var reg 1 x Q_OUT_2 $end
$var reg 1 y EN_2 $end
$var reg 1 z D_IN_2 $end
$var reg 1 { Q_OUT_3 $end
$var reg 1 | EN_3 $end
$var reg 1 } D_IN_3 $end
$var reg 1 ~ Q_OUT_4 $end
$var reg 1 "! EN_4 $end
$var reg 1 "" D_IN_4 $end
$upscope $end
$var reg 11 "# fifo_xy1_crg $end
$scope module fifo_xy1_crg $end
$var reg 11 "# Q_OUT_0 $end
$var reg 1 "$ EN_0 $end
$var reg 11 "% D_IN_0 $end
$var reg 11 "& Q_OUT_1 $end
$var reg 1 "' EN_1 $end
$var reg 11 "( D_IN_1 $end
$var reg 11 ") Q_OUT_2 $end
$var reg 1 "* EN_2 $end
$var reg 11 "+ D_IN_2 $end
$var reg 11 ", Q_OUT_3 $end
$var reg 1 "- EN_3 $end
$var reg 11 ". D_IN_3 $end
$var reg 11 "/ Q_OUT_4 $end
$var reg 1 "0 EN_4 $end
$var reg 11 "1 D_IN_4 $end
$upscope $end
$var reg 1 "2 fifo_xy1_crg_count $end
$scope module fifo_xy1_crg_count $end
$var reg 1 "2 Q_OUT_0 $end
$var reg 1 "3 EN_0 $end
$var reg 1 "4 D_IN_0 $end
$var reg 1 "5 Q_OUT_1 $end
$var reg 1 "6 EN_1 $end
$var reg 1 "7 D_IN_1 $end
$var reg 1 "8 Q_OUT_2 $end
$var reg 1 "9 EN_2 $end
$var reg 1 ": D_IN_2 $end
$var reg 1 "; Q_OUT_3 $end
$var reg 1 "< EN_3 $end
$var reg 1 "= D_IN_3 $end
$var reg 1 "> Q_OUT_4 $end
$var reg 1 "? EN_4 $end
$var reg 1 "@ D_IN_4 $end
$upscope $end
$var reg 11 "A fifo_xy2_crg $end
$scope module fifo_xy2_crg $end
$var reg 11 "A Q_OUT_0 $end
$var reg 1 "B EN_0 $end
$var reg 11 "C D_IN_0 $end
$var reg 11 "D Q_OUT_1 $end
$var reg 1 "E EN_1 $end
$var reg 11 "F D_IN_1 $end
$var reg 11 "G Q_OUT_2 $end
$var reg 1 "H EN_2 $end
$var reg 11 "I D_IN_2 $end
$var reg 11 "J Q_OUT_3 $end
$var reg 1 "K EN_3 $end
$var reg 11 "L D_IN_3 $end
$var reg 11 "M Q_OUT_4 $end
$var reg 1 "N EN_4 $end
$var reg 11 "O D_IN_4 $end
$upscope $end
$var reg 1 "P fifo_xy2_crg_count $end
$scope module fifo_xy2_crg_count $end
$var reg 1 "P Q_OUT_0 $end
$var reg 1 "Q EN_0 $end
$var reg 1 "R D_IN_0 $end
$var reg 1 "S Q_OUT_1 $end
$var reg 1 "T EN_1 $end
$var reg 1 "U D_IN_1 $end
$var reg 1 "V Q_OUT_2 $end
$var reg 1 "W EN_2 $end
$var reg 1 "X D_IN_2 $end
$var reg 1 "Y Q_OUT_3 $end
$var reg 1 "Z EN_3 $end
$var reg 1 "[ D_IN_3 $end
$var reg 1 "\ Q_OUT_4 $end
$var reg 1 "] EN_4 $end
$var reg 1 "^ D_IN_4 $end
$upscope $end
$upscope $end
$upscope $end
$upscope $end
$enddefinitions $end
1!
0"
0#
0$
0%
0&
b10101010101010101010101010101010 '
b10101010101010101010101010101010 (
b1010 )
b0 +
0,
0-
0.
1/
00
01
02
03
04
05
06
07
08
19
0:
b0 ;
b0 <
b1010101010 E
0F
b1010101010 G
b1010101010 H
0I
b1010101010 J
b1010101010 K
0L
b1010101010 M
b1010101010 N
0O
b1010101010 P
b1010101010 Q
0R
b1010101010 S
0T
0U
0V
0W
0X
0Y
0Z
0[
0\
0]
0^
0_
0`
0a
0b
b10101010 c
0d
b10101010 e
b10101010 f
0g
b10101010 h
b10101010 i
0j
b10101010 k
b10101010 l
0m
b10101010 n
b10101010 o
0p
b10101010 q
0r
0s
0t
0u
0v
0w
0x
0y
0z
0{
0|
0}
0~
0"!
0""
b1010101010 "#
0"$
b1010101010 "%
b1010101010 "&
0"'
b1010101010 "(
b1010101010 ")
0"*
b1010101010 "+
b1010101010 ",
0"-
b1010101010 ".
b1010101010 "/
0"0
b1010101010 "1
0"2
0"3
0"4
0"5
0"6
0"7
0"8
0"9
0":
0";
0"<
0"=
0">
0"?
0"@
b1010101010 "A
0"B
b1010101010 "C
b1010101010 "D
0"E
b1010101010 "F
b1010101010 "G
0"H
b1010101010 "I
b1010101010 "J
0"K
b1010101010 "L
b1010101010 "M
0"N
b1010101010 "O
0"P
0"Q
0"R
0"S
0"T
0"U
0"V
0"W
0"X
0"Y
0"Z
0"[
0"\
0"]
0"^
1#
1&
b1010 '
b0 )
15
17
b1000 ;
1I
b1000 J
b1000 K
b1000 N
b1000 Q
1X
1Y
1Z
1]
1`
#5
0!
1$
11
#10
b10100 '
b1 )
1,
12
b1001 ;
b1000 E
b1000 H
b1001 J
b1001 K
b1001 N
b1001 Q
1T
1U
1"'
b1000 "(
b1000 ")
b1000 ",
b1000 "/
1"6
1"7
1"8
1";
1">
1!
b1 +
#15
0!
#20
b11110 '
b10 )
1-
13
b1010 ;
b1001 E
b1001 H
b1010 J
b1010 K
b1010 N
b1010 Q
b1000 "#
b1000 "&
b10001 "(
b10001 ")
b10001 ",
b10001 "/
1"2
1"3
1"E
b1000 "F
b1000 "G
b1000 "J
b1000 "M
1"T
1"U
1"V
1"Y
1"\
1!
b10 +
#25
0!
#30
b101000 '
b11 )
1.
14
b1011 ;
b1010 E
b1010 H
b1011 J
b1011 K
b1011 N
b1011 Q
1g
b1 h
b1 i
b1 l
b1 o
1v
1w
1x
1{
1~
b10001 "#
b10001 "&
b1010 "(
b1010 ")
b1010 ",
b1010 "/
b1000 "A
b1000 "D
b10001 "F
b10001 "G
b10001 "J
b10001 "M
1"P
1"Q
1!
b11 +
#35
0!
#40
1"
1%
b110010 '
b110010 (
b100 )
10
16
18
1:
b1100 ;
b1 <
b1011 E
b1011 H
b1100 J
b1100 K
b1100 N
b1100 Q
b1 c
b1 f
b10 h
b10 i
b10 l
b10 o
1r
1s
b1010 "#
b1010 "&
b10011 "(
b10011 ")
b10011 ",
b10011 "/
b10001 "A
b10001 "D
b100010 "F
b100010 "G
b100010 "J
b100010 "M
1!
b100 +
#45
0!
#50
b111100 '
b111100 (
b101 )
b1101 ;
b10 <
b1100 E
b1100 H
b1101 J
b1101 K
b1101 N
b1101 Q
b10 c
b10 f
b100 h
b100 i
b100 l
b100 o
b10011 "#
b10011 "&
b1100 "(
b1100 ")
b1100 ",
b1100 "/
b100010 "A
b100010 "D
b1000011 "F
b1000011 "G
b1000011 "J
b1000011 "M
1!
b101 +
#55
0!
#60
b1000110 '
b1000110 (
b110 )
b1110 ;
b100 <
b1101 E
b1101 H
b1110 J
b1110 K
b1110 N
b1110 Q
b100 c
b100 f
b1000 h
b1000 i
b1000 l
b1000 o
b1100 "#
b1100 "&
b10101 "(
b10101 ")
b10101 ",
b10101 "/
b1000011 "A
b1000011 "D
b1100 "F
b1100 "G
b1100 "J
b1100 "M
1!
b110 +
#65
0!
#70
b1010000 '
b1010000 (
b111 )
b1111 ;
b1000 <
b1110 E
b1110 H
b1111 J
b1111 K
b1111 N
b1111 Q
b1000 c
b1000 f
b10000 h
b10000 i
b10000 l
b10000 o
b10101 "#
b10101 "&
b1110 "(
b1110 ")
b1110 ",
b1110 "/
b1100 "A
b1100 "D
b10101 "F
b10101 "G
b10101 "J
b10101 "M
1!
b111 +
#75
0!
#80
0#
0&
b1011010 (
b1000 )
05
07
b10000 <
b1111 E
b1111 H
0I
0X
0Z
0]
0`
b10000 c
b10000 f
b100000 h
b100000 i
b100000 l
b100000 o
b1110 "#
b1110 "&
b10111 "(
b10111 ")
b10111 ",
b10111 "/
b10101 "A
b10101 "D
b100110 "F
b100110 "G
b100110 "J
b100110 "M
1!
b1000 +
#85
0!
#90
b1100100 (
0,
02
b100000 <
0T
0U
b100000 c
b100000 f
b1000000 h
b1000000 i
b1000000 l
b1000000 o
b10111 "#
b10111 "&
0"'
0"6
0"8
0";
0">
b100110 "A
b100110 "D
b1000111 "F
b1000111 "G
b1000111 "J
b1000111 "M
1!
#95
0!
#100
b1101110 (
0-
03
b1000000 <
b1000000 c
b1000000 f
b10000000 h
b10000000 i
b10000000 l
b10000000 o
0"2
0"3
b1000111 "A
b1000111 "D
0"E
0"T
0"V
0"Y
0"\
1!
#105
0!
#110
b1111000 (
0.
04
b10000000 <
b10000000 c
b10000000 f
0g
0v
0x
0{
0~
0"P
0"Q
1!
