Tutorials/BSV_Training/Example_Programs/Eg05a_CRegs_Greater_Concurrency/dump_Reg.vcd
$date
	Mon Sep  1 20:02:52 2014
$end
$version
	Bluespec VCD dumper 2.1
$end
$timescale
	1 us
$end
$scope module main $end
$scope module top $end
$var reg 1 ! CLK $end
$var reg 1 ! CLK $end
$var reg 1 " CAN_FIRE_RL_rl_1 $end
$var reg 1 # CAN_FIRE_RL_rl_2 $end
$var reg 1 $ CAN_FIRE_RL_rl_step $end
$var reg 1 % RST_N $end
$var reg 1 & WILL_FIRE_RL_rl_1 $end
$var reg 1 ' WILL_FIRE_RL_rl_2 $end
$var reg 1 ( WILL_FIRE_RL_rl_step $end
$var reg 32 ) b__h192 $end
$var reg 32 * signed_step___d6 $end
$var reg 32 , step $end
$scope module ctr $end
$var reg 1 ! CLK $end
$var reg 1 - CAN_FIRE_count1 $end
$var reg 1 . CAN_FIRE_count2 $end
$var reg 1 / RST_N $end
$var reg 1 0 WILL_FIRE_count1 $end
$var reg 1 1 WILL_FIRE_count2 $end
$var reg 32 2 b__h107 $end
$var reg 1 3 EN_count1 $end
$var reg 1 4 EN_count2 $end
$var reg 1 5 RDY_count1 $end
$var reg 1 6 RDY_count2 $end
$var reg 32 7 count1 $end
$var reg 32 8 count1_delta $end
$var reg 32 9 count2 $end
$var reg 32 : count2_delta $end
$var reg 32 < rg $end
$upscope $end
$upscope $end
$upscope $end
$enddefinitions $end
1!
1"
0#
1$
0%
1&
0'
1(
b10101010101010101010101010101010 )
b10101010101010101010101010101010 *
b0 ,
1-
1.
0/
10
01
b10101010101010101010101010101010 2
13
04
15
16
b10101010101010101010101010101010 7
b10101010101010101010101010110100 8
b0 9
b0 :
b0 <
b0 )
b0 *
b0 2
b0 7
b1010 8
#5
0!
1%
1/
#10
b1 )
b1 *
b1010 2
b1010 7
b1011 8
1!
b1 ,
b1010 <
#15
0!
#20
b10 )
b10 *
b10101 2
b10101 7
b1100 8
1!
b10 ,
b10101 <
#25
0!
#30
b11 )
b11 *
b100001 2
b100001 7
b1101 8
1!
b11 ,
b100001 <
#35
0!
#40
1#
b100 )
b100 *
b101110 2
b101110 7
b1110 8
1!
b100 ,
b101110 <
#45
0!
#50
b101 )
b101 *
b111100 2
b111100 7
b1111 8
1!
b101 ,
b111100 <
#55
0!
#60
b110 )
b110 *
b1001011 2
b1001011 7
b10000 8
1!
b110 ,
b1001011 <
#65
0!
#70
0"
0&
1'
b111 )
b111 *
00
11
b1011011 2
03
14
b1011011 9
b11111111111111111111111111111110 :
1!
b111 ,
b1011011 <
#75
0!
#80
b1000 )
b1000 *
b1011001 2
b1011001 9
b11111111111111111111111111111101 :
1!
b1000 ,
b1011001 <
#85
0!
#90
b1001 )
b1001 *
b1010110 2
b1010110 9
b11111111111111111111111111111100 :
1!
b1001 ,
b1010110 <
#95
0!
#100
b1010 )
b1010 *
b1010010 2
b1010010 9
b11111111111111111111111111111011 :
1!
b1010 ,
b1010010 <
