Tutorials/BSV_Training/Example_Programs/Eg03b_Bubblesort/dump.vcd
$date
	Thu Jan 29 14:30:24 2015
$end
$version
	Icarus Verilog
$end
$timescale
	1s
$end
$scope module main $end
$var reg 1 ! CLK $end
$var reg 1 " RST $end
$var reg 32 # cycle [31:0] $end
$var reg 1 $ do_cycles $end
$var reg 1 % do_fsdb $end
$var reg 1 & do_fst $end
$var reg 1 ' do_vcd $end
$var reg 2048 ( filename [2048:1] $end
$scope module top $end
$var wire 1 ) CAN_FIRE_RL_rl_drain_outputs $end
$var wire 1 * CAN_FIRE_RL_rl_feed_inputs $end
$var wire 1 + CLK $end
$var wire 1 , RST_N $end
$var wire 1 - WILL_FIRE_RL_rl_drain_outputs $end
$var wire 1 . WILL_FIRE_RL_rl_feed_inputs $end
$var wire 8 / \lfsr_r$D_IN [7:0] $end
$var wire 1 0 \lfsr_r$EN $end
$var wire 32 1 \rg_j1$D_IN [31:0] $end
$var wire 1 2 \rg_j1$EN $end
$var wire 32 3 \rg_j2$D_IN [31:0] $end
$var wire 1 4 \rg_j2$EN $end
$var wire 1 5 \sorter$EN_get $end
$var wire 1 6 \sorter$EN_put $end
$var wire 1 7 \sorter$RDY_get $end
$var wire 1 8 \sorter$RDY_put $end
$var wire 32 9 \sorter$get [31:0] $end
$var wire 32 : \sorter$put_x [31:0] $end
$var wire 32 ; v__h189 [31:0] $end
$var reg 8 < lfsr_r [7:0] $end
$var reg 32 = rg_j1 [31:0] $end
$var reg 32 > rg_j2 [31:0] $end
$var reg 32 ? v__h361 [31:0] $end
$var reg 32 @ v__h367 [31:0] $end
$var reg 32 A v__h461 [31:0] $end
$var reg 32 B v__h467 [31:0] $end
$scope module sorter $end
$var wire 1 C CAN_FIRE_RL_rl_swap_0_1 $end
$var wire 1 D CAN_FIRE_RL_rl_swap_1_2 $end
$var wire 1 E CAN_FIRE_RL_rl_swap_2_3 $end
$var wire 1 F CAN_FIRE_RL_rl_swap_3_4 $end
$var wire 1 G CAN_FIRE_get $end
$var wire 1 H CAN_FIRE_put $end
$var wire 1 + CLK $end
$var wire 1 5 EN_get $end
$var wire 1 6 EN_put $end
$var wire 1 I \MUX_rg_inj$write_1__SEL_1 $end
$var wire 3 J \MUX_rg_inj$write_1__VAL_2 [2:0] $end
$var wire 1 7 RDY_get $end
$var wire 1 8 RDY_put $end
$var wire 1 , RST_N $end
$var wire 1 K WILL_FIRE_RL_rl_swap_0_1 $end
$var wire 1 L WILL_FIRE_RL_rl_swap_1_2 $end
$var wire 1 M WILL_FIRE_RL_rl_swap_2_3 $end
$var wire 1 N WILL_FIRE_RL_rl_swap_3_4 $end
$var wire 1 O WILL_FIRE_get $end
$var wire 1 P WILL_FIRE_put $end
$var wire 32 Q get [31:0] $end
$var wire 32 R put_x [31:0] $end
$var wire 3 S \rg_inj$D_IN [2:0] $end
$var wire 1 T \rg_inj$EN $end
$var wire 32 U \x0$D_IN [31:0] $end
$var wire 1 V \x0$EN $end
$var wire 1 W x0_SLE_x1___d3 $end
$var wire 32 X \x1$D_IN [31:0] $end
$var wire 1 Y \x1$EN $end
$var wire 1 Z x1_SLE_x2___d6 $end
$var wire 32 [ \x2$D_IN [31:0] $end
$var wire 1 \ \x2$EN $end
$var wire 1 ] x2_SLE_x3___d9 $end
$var wire 32 ^ \x3$D_IN [31:0] $end
$var wire 1 _ \x3$EN $end
$var wire 1 ` x3_SLE_x4_1___d12 $end
$var wire 1 a \x4$EN $end
$var reg 3 b rg_inj [2:0] $end
$var reg 32 c x0 [31:0] $end
$var reg 32 d x1 [31:0] $end
$var reg 32 e x2 [31:0] $end
$var reg 32 f x3 [31:0] $end
$var reg 32 g x4 [31:0] $end
$var reg 32 h \x4$D_IN [31:0] $end
$upscope $end
$upscope $end
$upscope $end
$enddefinitions $end
#0
$dumpvars
b10101010101010101010101010101010 h
b10101010101010101010101010101010 g
b10101010101010101010101010101010 f
b10101010101010101010101010101010 e
b10101010101010101010101010101010 d
b10101010101010101010101010101010 c
b10 b
0a
1`
0_
b10101010101010101010101010101010 ^
1]
0\
b10101010101010101010101010101010 [
1Z
0Y
b10101010101010101010101010101010 X
1W
0V
b10101010101010101010101010101010 U
0T
b11 S
b10101010 R
b10101010101010101010101010101010 Q
0P
0O
0N
0M
0L
0K
b11 J
0I
0H
0G
0F
0E
0D
0C
bx B
bx A
bx @
bx ?
b10101010101010101010101010101010 >
b10101010101010101010101010101010 =
b10101010 <
b10101010 ;
b10101010 :
b10101010101010101010101010101010 9
08
07
06
05
04
b10101010101010101010101010101011 3
02
b10101010101010101010101010101011 1
00
b1010101 /
0.
0-
0,
x+
0*
0)
b110010001110101011011010111000000101110011101100110001101100100 (
1'
0&
0%
0$
b0 #
0"
x!
$end
#1
1a
b1 h
1T
1.
10
12
16
1P
1*
b10001110 /
18
1H
b1111111111111111111111111111111 ^
b1111111111111111111111111111111 [
0F
0N
1`
b1111111111111111111111111111111 X
0E
1]
0D
1Z
0C
1W
b1 S
b1111111111111111111111111111111 g
b1111111111111111111111111111111 f
b1111111111111111111111111111111 e
b1111111111111111111111111111111 d
b1111111111111111111111111111111 U
b1111111111111111111111111111111 c
b1111111111111111111111111111111 9
b1111111111111111111111111111111 Q
b0 b
b1 J
b0 >
b1 3
b0 =
b1 1
b1 <
b1 ;
b1 :
b1 R
1!
1+
b1 #
#2
1"
1,
#5
b0 ?
b101 @
0!
0+
#10
0T
1_
b1000111 /
0.
00
02
06
0P
0*
b1111111111111111111111111111111 h
08
0H
b1 ^
1F
1N
0`
b10 S
b1 =
b10 1
b10001110 <
b10001110 ;
b10001110 :
b10001110 R
b1 g
b1 b
b10 J
1!
1+
#11
b10 #
#15
0!
0+
#20
1\
1T
1a
1.
10
12
16
1P
1*
1M
18
1H
b1111111111111111111111111111111 ^
b10001110 h
b1 [
0F
0N
1`
1E
0]
b1111111111111111111111111111111 g
b1 f
1!
1+
#21
b11 #
#25
b10 ?
b11001 @
0!
0+
#30
1Y
0T
1L
b10101101 /
0.
00
02
06
0P
0*
0M
08
0H
1F
1N
0`
b1111111111111111111111111111111 h
b1111111111111111111111111111111 [
b1 X
b10001110 ^
0E
1]
1D
0Z
b11 S
b10 =
b11 1
b1000111 <
b1000111 ;
b1000111 :
b1000111 R
b10001110 g
b1111111111111111111111111111111 f
b1 e
b10 b
b11 J
1!
1+
#31
b100 #
#35
0!
0+
#40
1V
1T
1a
1K
1.
10
12
16
1P
1*
1M
0L
18
1H
b1111111111111111111111111111111 ^
b1000111 h
0F
0N
1`
1E
0]
b1111111111111111111111111111111 X
b10001110 [
0D
1Z
1C
0W
b1111111111111111111111111111111 g
b10001110 f
b1111111111111111111111111111111 e
b1 d
b1 U
1!
1+
#41
b101 #
#45
b100 ?
b101101 @
0!
0+
#50
1Y
0T
1L
0V
b11011000 /
0.
00
02
06
0P
0*
0M
0K
08
0H
1F
1N
0`
b1111111111111111111111111111111 h
b1111111111111111111111111111111 [
b1000111 ^
0E
1]
1D
0Z
b10001110 X
0C
1W
b100 S
b11 =
b100 1
b10101101 <
b10101101 ;
b10101101 :
b10101101 R
b1000111 g
b1111111111111111111111111111111 f
b10001110 e
b1111111111111111111111111111111 d
b1111111111111111111111111111111 U
b1 c
b1 9
b1 Q
b11 b
b100 J
1!
1+
#51
b110 #
#55
0!
0+
#60
0Y
1T
1a
1.
10
12
16
1P
1*
1M
0L
18
1H
b1111111111111111111111111111111 ^
b10101101 h
0F
0N
1`
1E
0]
b1111111111111111111111111111111 X
b1000111 [
0D
1Z
b1111111111111111111111111111111 g
b1000111 f
b1111111111111111111111111111111 e
b10001110 d
b10001110 U
1!
1+
#61
b111 #
#65
b110 ?
b1000001 @
0!
0+
#70
1Y
0T
1L
b1101100 /
0.
00
02
06
0P
0*
0M
08
0H
1F
1N
0`
b1111111111111111111111111111111 h
b10001110 [
b1000111 X
b10101101 ^
0E
1]
1D
0Z
b101 S
b100 =
b101 1
b11011000 <
b11011000 ;
b11011000 :
b11011000 R
b10101101 g
b1111111111111111111111111111111 f
b1000111 e
b100 b
b101 J
1!
1+
#71
b1000 #
#75
0!
0+
#80
0Y
0\
1T
0_
1a
1.
10
12
16
1P
1*
0L
18
1H
b1111111111111111111111111111111 ^
b11011000 h
0F
0N
1`
b10001110 X
b10101101 [
0D
1Z
b1111111111111111111111111111111 g
b10101101 f
b10001110 e
b1000111 d
b1000111 U
1!
1+
#81
b1001 #
#85
b1000 ?
b1010101 @
0!
0+
#90
1V
1Y
1\
1_
1-
14
15
1O
1)
1a
1G
17
0T
b110110 /
0.
00
02
06
0P
0*
b1111111111111111111111111111111 h
b11011000 ^
08
0H
b110 S
b101 =
b110 1
b1101100 <
b1101100 ;
b1101100 :
b1101100 R
b11011000 g
b101 b
b110 J
1!
1+
#91
b1010 #
#95
b1001 A
b1011111 B
0!
0+
#100
b1111111111111111111111111111111 ^
b11011000 [
b10101101 X
b1111111111111111111111111111111 g
b11011000 f
b10101101 e
b10001110 d
b10001110 U
b1000111 c
b1000111 9
b1000111 Q
b1 >
b10 3
1!
1+
#101
b1011 #
#105
b1010 A
b1101001 B
0!
0+
#110
b1111111111111111111111111111111 [
b11011000 X
b10 >
b11 3
b1111111111111111111111111111111 f
b11011000 e
b10101101 d
b10101101 U
b10001110 c
b10001110 9
b10001110 Q
1!
1+
#111
b1100 #
#115
b1011 A
b1110011 B
0!
0+
#120
b1111111111111111111111111111111 X
b1111111111111111111111111111111 e
b11011000 d
b11011000 U
b10101101 c
b10101101 9
b10101101 Q
b11 >
b100 3
1!
1+
#121
b1101 #
#125
b1100 A
b1111101 B
0!
0+
#130
b0 S
1T
1I
b100 >
b101 3
b1111111111111111111111111111111 d
b1111111111111111111111111111111 U
b11011000 c
b11011000 9
b11011000 Q
1!
1+
#131
b1110 #
#135
b1101 A
b10000111 B
0!
0+
