Tutorials/BSV_Training/Example_Programs/Eg04a_MicroArchs/dump.vcd
$date
	Tue Sep  2 17:50:30 2014
$end
$version
	Bluespec VCD dumper 2.1
$end
$timescale
	1 us
$end
$scope module main $end
$scope module top $end
$var reg 1 ! CLK $end
$var reg 1 ! CLK $end
$var reg 1 " CAN_FIRE_RL_rl_drain $end
$var reg 1 # CAN_FIRE_RL_rl_gen $end
$var reg 1 $ RST_N $end
$var reg 1 % WILL_FIRE_RL_rl_drain $end
$var reg 1 & WILL_FIRE_RL_rl_gen $end
$var reg 32 ' v__h244 $end
$var reg 32 ( v__h319 $end
$var reg 4 ) x__h204 $end
$var reg 4 + rg_y $end
$scope module shifter $end
$var reg 1 ! CLK $end
$var reg 1 , CAN_FIRE_RL_rl_0 $end
$var reg 1 - CAN_FIRE_RL_rl_1 $end
$var reg 1 . CAN_FIRE_RL_rl_2 $end
$var reg 1 / CAN_FIRE_request_put $end
$var reg 1 0 CAN_FIRE_response_get $end
$var reg 1 1 RST_N $end
$var reg 1 2 WILL_FIRE_RL_rl_0 $end
$var reg 1 3 WILL_FIRE_RL_rl_1 $end
$var reg 1 4 WILL_FIRE_RL_rl_2 $end
$var reg 1 5 WILL_FIRE_request_put $end
$var reg 1 6 WILL_FIRE_response_get $end
$var reg 8 7 _read__h261 $end
$var reg 3 8 rg_y__h643 $end
$var reg 1 9 EN_request_put $end
$var reg 1 : EN_response_get $end
$var reg 1 ; RDY_request_put $end
$var reg 1 < RDY_response_get $end
$var reg 11 = request_put $end
$var reg 8 > response_get $end
$scope module fifo_in_xy $end
$var reg 1 ! CLK $end
$var reg 1 D RST $end
$var reg 1 E FULL_N $end
$var reg 1 F EMPTY_N $end
$var reg 1 G ENQ $end
$var reg 11 H D_IN $end
$var reg 1 I DEQ $end
$var reg 1 J CLR $end
$var reg 11 K D_OUT $end
$var reg 11 K arr_0 $end
$var reg 11 L arr_1 $end
$upscope $end
$scope module fifo_out_z $end
$var reg 1 ! CLK $end
$var reg 1 M RST $end
$var reg 1 N FULL_N $end
$var reg 1 O EMPTY_N $end
$var reg 1 P ENQ $end
$var reg 8 Q D_IN $end
$var reg 1 R DEQ $end
$var reg 1 S CLR $end
$var reg 8 T D_OUT $end
$var reg 8 T arr_0 $end
$var reg 8 U arr_1 $end
$upscope $end
$var reg 2 V rg_j $end
$var reg 8 W rg_x $end
$var reg 3 X rg_y $end
$upscope $end
$upscope $end
$upscope $end
$enddefinitions $end
1!
0"
0#
0$
0%
0&
b10101010101010101010101010101010 '
b10101010101010101010101010101010 (
b1010 )
b0 +
0,
0-
1.
1/
00
01
02
03
14
05
06
b10101010 7
b10 8
09
0:
1;
0<
b0 =
b0 >
0D
1E
0F
0G
b1010101010 H
0I
1J
bx K
bx L
0M
1N
0O
1P
b10101010 Q
0R
1S
bx T
bx U
b0 V
b10101010 W
b10 X
1#
1&
b1010 '
b0 )
0.
04
15
19
b1000 =
1G
b1000 H
0J
0P
0S
#5
0!
1$
11
1D
1M
#10
b10100 '
b1 )
1,
12
b1001 =
b1001 H
1I
1!
b1 +
1F
b1000 K
#15
0!
#20
b11110 '
b10 )
0,
1-
02
13
b1 7
b0 8
b1010 =
b1010 H
0I
1!
b10 +
b1001 K
b1 V
b1 W
b0 X
#25
0!
#30
0#
0&
b11 )
0-
1.
0/
03
14
05
09
0;
0G
1P
b1 Q
1!
b11 +
0E
b1010 L
b10 V
#35
0!
#40
1"
1%
b110010 (
1,
0.
10
12
04
16
1:
1<
b1 >
1I
0P
1R
1!
1O
b1 T
b0 V
#45
0!
#50
0"
1#
0%
1&
b111100 '
0,
1-
1/
00
02
13
15
06
b10 7
b1 8
19
0:
1;
0<
b1011 =
1G
b1011 H
0I
0R
1!
1E
b1010 K
bx L
0O
bx T
b1 V
b10 W
b1 X
#55
0!
#60
0#
0&
b100 )
0-
1.
0/
03
14
05
09
0;
0G
1P
b10 Q
1!
b100 +
0E
b1011 L
b10 V
#65
0!
#70
1"
1%
b1010000 (
1,
0.
10
12
04
16
1:
1<
b10 >
1I
0P
1R
1!
1O
b10 T
b0 V
#75
0!
#80
0"
1#
0%
1&
b1011010 '
0,
1-
1/
00
02
13
15
06
b1 7
b10 8
19
0:
1;
0<
b1100 =
1G
b1100 H
0I
0R
1!
1E
b1011 K
bx L
0O
bx T
b1 V
b1 W
b10 X
#85
0!
#90
0#
0&
b101 )
0-
1.
0/
03
14
05
b100 7
09
0;
0G
1P
b100 Q
1!
b101 +
0E
b1100 L
b10 V
b100 W
#95
0!
#100
1"
1%
b1101110 (
1,
0.
10
12
04
16
1:
1<
b100 >
1I
0P
1R
1!
1O
b100 T
b0 V
#105
0!
#110
0"
1#
0%
1&
b1111000 '
0,
1-
1/
00
02
13
15
06
b10 7
b11 8
19
0:
1;
0<
b1101 =
1G
b1101 H
0I
0R
1!
1E
b1100 K
bx L
0O
bx T
b1 V
b10 W
b11 X
#115
0!
#120
0#
0&
b110 )
0-
1.
0/
03
14
05
b1000 7
09
0;
0G
1P
b1000 Q
1!
b110 +
0E
b1101 L
b10 V
b1000 W
#125
0!
#130
1"
1%
b10001100 (
1,
0.
10
12
04
16
1:
1<
b1000 >
1I
0P
1R
1!
1O
b1000 T
b0 V
#135
0!
#140
0"
1#
0%
1&
b10010110 '
0,
1-
1/
00
02
13
15
06
b1 7
b100 8
19
0:
1;
0<
b1110 =
1G
b1110 H
0I
0R
1!
1E
b1101 K
bx L
0O
bx T
b1 V
b1 W
b100 X
#145
0!
#150
0#
0&
b111 )
0-
1.
0/
03
14
05
09
0;
0G
1P
b10000 Q
1!
b111 +
0E
b1110 L
b10 V
#155
0!
#160
1"
1%
b10101010 (
1,
0.
10
12
04
16
1:
1<
b10000 >
1I
0P
1R
1!
1O
b10000 T
b0 V
#165
0!
#170
0"
1#
0%
1&
b10110100 '
0,
1-
1/
00
02
13
15
06
b10 7
b101 8
19
0:
1;
0<
b1111 =
1G
b1111 H
0I
0R
1!
1E
b1110 K
bx L
0O
bx T
b1 V
b10 W
b101 X
#175
0!
#180
0#
0&
b1000 )
0-
1.
0/
03
14
05
09
0;
0G
1P
b100000 Q
1!
b1000 +
0E
b1111 L
b10 V
#185
0!
#190
1"
1%
b11001000 (
1,
0.
10
12
04
16
1:
1<
b100000 >
1I
0P
1R
1!
1O
b100000 T
b0 V
#195
0!
#200
0"
0%
0,
1-
1/
00
02
13
06
b1 7
b110 8
0:
1;
0<
0I
0R
1!
1E
b1111 K
bx L
0O
bx T
b1 V
b1 W
b110 X
#205
0!
#210
0-
1.
03
14
b100 7
1P
b1000000 Q
1!
b10 V
b100 W
#215
0!
#220
1"
1%
b11100110 (
1,
0.
10
12
04
16
1:
1<
b1000000 >
1I
0P
1R
1!
1O
b1000000 T
b0 V
#225
0!
#230
0"
0%
0,
1-
00
02
13
06
b10 7
b111 8
0:
0<
0I
0R
1!
0F
bx K
0O
bx T
b1 V
b10 W
b111 X
#235
0!
#240
0-
1.
03
14
b1000 7
1P
b10000000 Q
1!
b10 V
b1000 W
#245
0!
#250
1"
1%
b100000100 (
0.
10
04
16
1:
1<
b10000000 >
0P
1R
1!
1O
b10000000 T
b0 V
